﻿########## Racial Traits ##########

#Elf - If you updat this remember to update race_elf_dead
race_elf = {
	index = 300
	
	flag = racial_trait
	
	fertility = -0.75	#was 0.75
	monthly_lifestyle_xp_gain_mult = -1
	years_of_fertility = 220	#so maybe like 250 it falls off	#45+ will give x0.1 multiplier so its the cutoff. 40 is 0.33, 35 is 0.5
	life_expectancy = 325
	no_prowess_loss_from_age = yes
	negate_health_penalty_add = 1
	
	#martial = 1
	#intrigue = 1
	#stewardship = 1
	#learning = 1
	#diplomacy = 1

	health = 0.66 #to prevent early death for scripted characters

	flag = elf_child_marriage
	
	attraction_opinion = 20
	
	same_opinion = 5
	
	inherit_chance = 100
	both_parent_has_trait_inherit_chance = 100
	physical = yes
	
	birth = 0
	random_creation = 0

	#forced_portrait_age_index = 6 # old_beauty_1	#no aging mate	#this does fuck all honestly. the true answer is portrait_modifiers


	track = {
		20 = { 	#Child
			#flag = can_not_marry
			#flag = massively_reduced_marriage_acceptance

			#custom = elf_child_marriage
			monthly_lifestyle_xp_gain_mult = 0.1
		}	
		50 = {	#Adult
			fertility = 0.25	#allows them to have kids
			monthly_lifestyle_xp_gain_mult = 0.1	#allows them to learn more lmao
			diplomacy = 1
		}
		100 = {	#Elder
			#fertility = -10
			monthly_lifestyle_xp_gain_mult = -0.5 #base -100%. must rely on your education trait
			learning = 1
		}
	}
	
	icon = {
		first_valid = {
			triggered_desc = {
				trigger = { NOT = { exists = this } }
				desc = consecrated_blood.dds
			}
			desc = consecrated_blood.dds
		}
	}	

	name = {
		first_valid = {
			#Elder
			triggered_desc = {
				trigger = {
					exists = this
					has_trait_xp = {
						trait = race_elf
						value >= 100
					}
				}
				desc = trait_race_elf_elder
			}
			#Adult
			triggered_desc = {
				trigger = { 
					exists = this
					has_trait_xp = {
						trait = race_elf
						value >= 50
					}
				}
				desc = trait_race_elf_adult
			}
			#Child
			triggered_desc = {
				trigger = { 
					exists = this
					has_trait_xp = {
						trait = race_elf
						value <= 20
					}
				}
				desc = trait_race_elf_child
			}
			#Fallback Elf
			desc = trait_race_elf
		}
	}

	# Loc
	desc = {
		first_valid = {
			#Elder
			triggered_desc = {
				trigger = {
					exists = this
					has_trait_xp = {
						trait = race_elf
						value >= 100
					}
				}
				desc = trait_race_elf_elder_desc
			}
			#Adult
			triggered_desc = {
				trigger = { 
					exists = this
					has_trait_xp = {
						trait = race_elf
						value >= 30
					}
				}
				desc = trait_race_elf_adult_desc
			}
			#Child
			triggered_desc = {
				trigger = { 
					exists = this
					has_trait_xp = {
						trait = race_elf
						value <= 20
					}
				}
				desc = trait_race_elf_child_desc
			}
			desc = trait_race_elf_desc
		}
	}
	
	# desc = {
	# 	first_valid = {
	# 		triggered_desc = {
	# 			trigger = {
	# 				NOT = { exists = this }
	# 			}
	# 			desc = trait_race_elf_desc
	# 		}
	# 		desc = trait_race_elf_character_desc
	# 	}
	# }
}

#Half-Elf
race_half_elf = {
	index = 301
	
	flag = racial_trait
	
	diplomacy = 2

	life_expectancy = 30

	attraction_opinion = 10
	
	same_opinion = 2
	
	inherit_chance = 100
	both_parent_has_trait_inherit_chance = 100
	physical = yes
	
	birth = 0
	random_creation = 0
	
	#genetic_constraint_all = beauty_2
	#genetic_constraint_men = male_beauty_2
	#genetic_constraint_women = female_beauty_2
	#forced_portrait_age_index = 1 # old_beauty_1

	icon = {
		first_valid = {
			triggered_desc = {
				trigger = { NOT = { exists = this } }
				desc = blood_of_prophet.dds
			}
			desc = blood_of_prophet.dds
		}
	}	
	desc = {
		first_valid = {
			triggered_desc = {
				trigger = {
					NOT = { exists = this }
				}
				desc = trait_race_half_elf_desc
			}
			desc = trait_race_half_elf_character_desc
		}
	}
}

# #Elf Blooded
# elf_blood = {
	# index = 302
	
	# fertility -0.1
	# learning = 2
	# diplomacy = 2
	
	# attraction_opinion = 10
	
	# vassal_opinion = 5
	# same_opinion = 10
	
	# inherit_chance = 100
	# both_parent_has_trait_inherit_chance = 100
	# physical = yes
	
	# birth = 0
	# random_creation = 0
	
	# icon = {
		# first_valid = {
			# triggered_desc = {
				# trigger = { NOT = { exists = this } }
				# desc = blood_of_the_prophet_parent.dds
			# }
			# desc = blood_of_the_prophet_parent.dds
		# }
	# }	
	# desc = {
		# first_valid = {
			# triggered_desc = {
				# trigger = {
					# NOT = { exists = this }
				# }
				# desc = trait_race_elf_blood_desc
			# }
			# desc = trait_race_elf_blood_character_desc
		# }
	# }
# }

#Human
race_human = {
	index = 303
	
	flag = racial_trait
	
	same_opinion = 2
	
	inherit_chance = 100
	both_parent_has_trait_inherit_chance = 100
	physical = yes
	
	birth = 0
	random_creation = 0
	
	icon = {
		first_valid = {
			triggered_desc = {
				trigger = { NOT = { exists = this } }
				desc = whole_of_body.dds
			}
			desc = whole_of_body.dds
		}
	}	
	desc = {
		first_valid = {
			triggered_desc = {
				trigger = {
					NOT = { exists = this }
				}
				desc = trait_race_human_desc
			}
			desc = trait_race_human_character_desc
		}
	}
}

#Dwarf
race_dwarf = {
	index = 304
	
	flag = racial_trait
	
	fertility = -0.25
	monthly_lifestyle_xp_gain_mult = -0.5
	#years_of_fertility = 25
	years_of_fertility = 75	#120
	life_expectancy = 125
	no_prowess_loss_from_age = yes
	negate_health_penalty_add = 0.5
	
	stewardship = 1
	prowess = 3

	health = 0.75 #to prevent early death for scripted characters

	same_opinion = 5
	
	inherit_chance = 100
	both_parent_has_trait_inherit_chance = 100
	physical = yes
	
	birth = 0
	random_creation = 0
	
	icon = {
		first_valid = {
			triggered_desc = {
				trigger = { NOT = { exists = this } }
				desc = sea_raider.dds
			}
			desc = sea_raider.dds
		}
	}	
	desc = {
		first_valid = {
			triggered_desc = {
				trigger = {
					NOT = { exists = this }
				}
				desc = trait_race_dwarf_desc
			}
			desc = trait_race_dwarf_character_desc
		}
	}
}

#Halfling
race_halfling = {
	index = 305
	
	flag = racial_trait
	
	fertility = 0.5
	prowess = -3

	same_opinion = 5
	
	inherit_chance = 100
	both_parent_has_trait_inherit_chance = 100
	physical = yes
	
	birth = 0
	random_creation = 0
	
	icon = {
		first_valid = {
			triggered_desc = {
				trigger = { NOT = { exists = this } }
				desc = dwarf.dds
			}
			desc = dwarf.dds
		}
	}	
	desc = {
		first_valid = {
			triggered_desc = {
				trigger = {
					NOT = { exists = this }
				}
				desc = trait_race_halfling_desc
			}
			desc = trait_race_halfling_character_desc
		}
	}
}

#Gnome
race_gnome = {
	index = 306
	
	flag = racial_trait
	
	fertility = -0.5
	monthly_lifestyle_xp_gain_mult = -0.66
	#years_of_fertility = 35
	years_of_fertility = 100
	life_expectancy = 175
	no_prowess_loss_from_age = yes
	negate_health_penalty_add = 0.5
	
	learning = 1
	prowess = -5

	health = 0.75 #to prevent early death for scripted characters

	same_opinion = 2
	
	inherit_chance = 100
	both_parent_has_trait_inherit_chance = 100
	physical = yes
	
	birth = 0
	random_creation = 0
	
	icon = {
		first_valid = {
			triggered_desc = {
				trigger = { NOT = { exists = this } }
				desc = bossy.dds
			}
			desc = bossy.dds
		}
	}	
	desc = {
		first_valid = {
			triggered_desc = {
				trigger = {
					NOT = { exists = this }
				}
				desc = trait_race_gnome_desc
			}
			desc = trait_race_gnome_character_desc
		}
	}
}

#Gnomling
race_gnomeling = {
	index = 307
	
	flag = racial_trait

	life_expectancy = 125	#from gnomish blood
	no_prowess_loss_from_age = yes
	
	can_have_children = no
	learning = 1
	prowess = -3

	health = 0.75 #to prevent early death for scripted characters

	same_opinion = 2
	
	inherit_chance = 100
	both_parent_has_trait_inherit_chance = 100
	physical = yes
	
	birth = 0
	random_creation = 0
	
	icon = {
		first_valid = {
			triggered_desc = {
				trigger = { NOT = { exists = this } }
				desc = bossy.dds
			}
			desc = bossy.dds
		}
	}	
	desc = {
		first_valid = {
			triggered_desc = {
				trigger = {
					NOT = { exists = this }
				}
				desc = trait_race_gnomeling_desc
			}
			desc = trait_race_gnomeling_character_desc
		}
	}
}

#Orc
race_orc = {
	index = 308
	
	flag = racial_trait
	
	prowess = 5

	same_opinion = 2
	
	inherit_chance = 100
	both_parent_has_trait_inherit_chance = 100
	physical = yes
	
	birth = 0
	random_creation = 0
	
	icon = {
		first_valid = {
			triggered_desc = {
				trigger = { NOT = { exists = this } }
				desc = whole_of_body.dds
			}
			desc = whole_of_body.dds
		}
	}	
	desc = {
		first_valid = {
			triggered_desc = {
				trigger = {
					NOT = { exists = this }
				}
				desc = trait_race_orc_desc
			}
			desc = trait_race_orc_character_desc
		}
	}
}

#Half-Orc
race_half_orc = {
	index = 309
	
	flag = racial_trait
	
	martial = 1
	prowess = 3

	same_opinion = 2
	
	inherit_chance = 100
	both_parent_has_trait_inherit_chance = 100
	physical = yes
	
	birth = 0
	random_creation = 0
	
	icon = {
		first_valid = {
			triggered_desc = {
				trigger = { NOT = { exists = this } }
				desc = whole_of_body.dds
			}
			desc = whole_of_body.dds
		}
	}	
	desc = {
		first_valid = {
			triggered_desc = {
				trigger = {
					NOT = { exists = this }
				}
				desc = trait_race_half_orc_desc
			}
			desc = trait_race_half_orc_character_desc
		}
	}
}

#Gnoll
race_gnoll = {
	index = 310
	
	flag = racial_trait
	
	fertility = 0.25
	prowess = 5
	life_expectancy = -20	#80 - 30 = 60

	same_opinion = 8
	general_opinion = -5
	
	inherit_chance = 100
	both_parent_has_trait_inherit_chance = 100
	physical = yes
	
	birth = 0
	random_creation = 0
	
	icon = {
		first_valid = {
			triggered_desc = {
				trigger = { NOT = { exists = this } }
				desc = whole_of_body.dds
			}
			desc = whole_of_body.dds
		}
	}	
	desc = {
		first_valid = {
			triggered_desc = {
				trigger = {
					NOT = { exists = this }
				}
				desc = trait_race_gnoll_desc
			}
			desc = trait_race_gnoll_character_desc
		}
	}
}

#Kobold
race_kobold = {
	index = 311
	
	flag = racial_trait
	
	health = -0.5
	fertility = 0.75
	prowess = -3
	life_expectancy = 30

	same_opinion = 2
	
	inherit_chance = 100
	both_parent_has_trait_inherit_chance = 100
	physical = yes
	
	birth = 0
	random_creation = 0
	
	icon = {
		first_valid = {
			triggered_desc = {
				trigger = { NOT = { exists = this } }
				desc = whole_of_body.dds
			}
			desc = whole_of_body.dds
		}
	}	
	desc = {
		first_valid = {
			triggered_desc = {
				trigger = {
					NOT = { exists = this }
				}
				desc = trait_race_kobold_desc
			}
			desc = trait_race_kobold_character_desc
		}
	}
}

#Troll
race_troll = {
	index = 312
	
	flag = racial_trait
	
	fertility = -0.5
	health = 0.5	#regeneration
	prowess = 10
	life_expectancy = 20	#100

	same_opinion = 2
	
	inherit_chance = 100
	both_parent_has_trait_inherit_chance = 100
	physical = yes
	
	birth = 0
	random_creation = 0
	
	icon = {
		first_valid = {
			triggered_desc = {
				trigger = { NOT = { exists = this } }
				desc = whole_of_body.dds
			}
			desc = whole_of_body.dds
		}
	}	
	desc = {
		first_valid = {
			triggered_desc = {
				trigger = {
					NOT = { exists = this }
				}
				desc = trait_race_troll_desc
			}
			desc = trait_race_troll_character_desc
		}
	}
}

#Trollkin
race_trollkin = {
	index = 313
	
	flag = racial_trait
	
	can_have_children = no

	health = 0.25	#regeneration
	prowess = 5
	life_expectancy = 20	#100

	same_opinion = 2
	
	inherit_chance = 100
	both_parent_has_trait_inherit_chance = 100
	physical = yes
	
	birth = 0
	random_creation = 0
	
	icon = {
		first_valid = {
			triggered_desc = {
				trigger = { NOT = { exists = this } }
				desc = whole_of_body.dds
			}
			desc = whole_of_body.dds
		}
	}	
	desc = {
		first_valid = {
			triggered_desc = {
				trigger = {
					NOT = { exists = this }
				}
				desc = trait_race_trollkin_desc
			}
			desc = trait_race_trollkin_character_desc
		}
	}
}

#Ogre
race_ogre = {
	index = 314
	
	flag = racial_trait
	
	fertility = -0.25
	prowess = 10
	life_expectancy = 20	#100

	same_opinion = 2
	
	inherit_chance = 100
	both_parent_has_trait_inherit_chance = 100
	physical = yes
	
	birth = 0
	random_creation = 0
	
	icon = {
		first_valid = {
			triggered_desc = {
				trigger = { NOT = { exists = this } }
				desc = whole_of_body.dds
			}
			desc = whole_of_body.dds
		}
	}	
	desc = {
		first_valid = {
			triggered_desc = {
				trigger = {
					NOT = { exists = this }
				}
				desc = trait_race_ogre_desc
			}
			desc = trait_race_ogre_character_desc
		}
	}
}

#race_ogrillon
race_ogrillon = {
	index = 315
	
	flag = racial_trait
	
	fertility = -0.5
	life_expectancy = 20	#100

	prowess = 7

	same_opinion = 2
	
	inherit_chance = 100
	both_parent_has_trait_inherit_chance = 100
	physical = yes
	
	birth = 0
	random_creation = 0
	
	icon = {
		first_valid = {
			triggered_desc = {
				trigger = { NOT = { exists = this } }
				desc = whole_of_body.dds
			}
			desc = whole_of_body.dds
		}
	}	
	desc = {
		first_valid = {
			triggered_desc = {
				trigger = {
					NOT = { exists = this }
				}
				desc = trait_race_ogrillon_desc
			}
			desc = trait_race_ogrillon_character_desc
		}
	}
}

#Goblin
race_goblin = {
	index = 316
	
	flag = racial_trait
	
	health = -0.25
	fertility = 0.5

	intrigue = 1
	
	prowess = -3

	same_opinion = 2
	
	inherit_chance = 100
	both_parent_has_trait_inherit_chance = 100
	physical = yes
	
	birth = 0
	random_creation = 0
	
	icon = {
		first_valid = {
			triggered_desc = {
				trigger = { NOT = { exists = this } }
				desc = whole_of_body.dds
			}
			desc = whole_of_body.dds
		}
	}	
	desc = {
		first_valid = {
			triggered_desc = {
				trigger = {
					NOT = { exists = this }
				}
				desc = trait_race_goblin_desc
			}
			desc = trait_race_goblin_character_desc
		}
	}
}

#Half-goblin
race_half_goblin = {
	index = 317
	
	flag = racial_trait
	
	can_have_children = no
	intrigue = 1
	prowess = -2

	same_opinion = 2
	
	inherit_chance = 100
	both_parent_has_trait_inherit_chance = 100
	physical = yes
	
	birth = 0
	random_creation = 0
	
	icon = {
		first_valid = {
			triggered_desc = {
				trigger = { NOT = { exists = this } }
				desc = whole_of_body.dds
			}
			desc = whole_of_body.dds
		}
	}	
	desc = {
		first_valid = {
			triggered_desc = {
				trigger = {
					NOT = { exists = this }
				}
				desc = trait_race_half_goblin_desc
			}
			desc = trait_race_half_goblin_character_desc
		}
	}
}

#Hobgoblin
race_hobgoblin = {
	index = 318
	
	flag = racial_trait
	
	martial = 1
	prowess = 7

	same_opinion = 2
	
	inherit_chance = 100
	both_parent_has_trait_inherit_chance = 100
	physical = yes
	
	birth = 0
	random_creation = 0
	
	icon = {
		first_valid = {
			triggered_desc = {
				trigger = { NOT = { exists = this } }
				desc = whole_of_body.dds
			}
			desc = whole_of_body.dds
		}
	}	
	desc = {
		first_valid = {
			triggered_desc = {
				trigger = {
					NOT = { exists = this }
				}
				desc = trait_race_hobgoblin_desc
			}
			desc = trait_race_hobgoblin_character_desc
		}
	}
}

#Half-hobgoblin
race_half_hobgoblin = {
	index = 319
	
	flag = racial_trait
	
	can_have_children = no
	martial = 1
	prowess = 5

	same_opinion = 2
	
	inherit_chance = 100
	both_parent_has_trait_inherit_chance = 100
	physical = yes
	
	birth = 0
	random_creation = 0
	
	icon = {
		first_valid = {
			triggered_desc = {
				trigger = { NOT = { exists = this } }
				desc = whole_of_body.dds
			}
			desc = whole_of_body.dds
		}
	}	
	desc = {
		first_valid = {
			triggered_desc = {
				trigger = {
					NOT = { exists = this }
				}
				desc = trait_race_half_hobgoblin_desc
			}
			desc = trait_race_half_hobgoblin_character_desc
		}
	}
}

#Lesser Hobgoblin
race_lesser_hobgoblin = {
	index = 320
	
	flag = racial_trait
	
	fertility = -0.5
	prowess = 2

	same_opinion = 2
	
	inherit_chance = 100
	both_parent_has_trait_inherit_chance = 100
	physical = yes
	
	birth = 0
	random_creation = 0
	
	icon = {
		first_valid = {
			triggered_desc = {
				trigger = { NOT = { exists = this } }
				desc = whole_of_body.dds
			}
			desc = whole_of_body.dds
		}
	}	
	desc = {
		first_valid = {
			triggered_desc = {
				trigger = {
					NOT = { exists = this }
				}
				desc = trait_race_lesser_hobgoblin_desc
			}
			desc = trait_race_lesser_hobgoblin_character_desc
		}
	}
}

#Harimari
race_harimari = {
	index = 321
	
	flag = racial_trait
	
	fertility = -0.25
	martial = 1
	learning = 1
	prowess = 5
	life_expectancy = 30

	same_opinion = 2
	
	inherit_chance = 100
	both_parent_has_trait_inherit_chance = 100
	physical = yes
	
	birth = 0
	random_creation = 0
	
	icon = {
		first_valid = {
			triggered_desc = {
				trigger = { NOT = { exists = this } }
				desc = whole_of_body.dds
			}
			desc = whole_of_body.dds
		}
	}	
	desc = {
		first_valid = {
			triggered_desc = {
				trigger = {
					NOT = { exists = this }
				}
				desc = trait_race_harimari_desc
			}
			desc = trait_race_harimari_character_desc
		}
	}
}

#Centaur
race_centaur = {
	index = 322
	
	flag = racial_trait
	
	prowess = 7

	same_opinion = 2
	
	inherit_chance = 100
	both_parent_has_trait_inherit_chance = 100
	physical = yes
	
	birth = 0
	random_creation = 0
	
	icon = {
		first_valid = {
			triggered_desc = {
				trigger = { NOT = { exists = this } }
				desc = whole_of_body.dds
			}
			desc = whole_of_body.dds
		}
	}	
	desc = {
		first_valid = {
			triggered_desc = {
				trigger = {
					NOT = { exists = this }
				}
				desc = trait_race_centaur_desc
			}
			desc = trait_race_centaur_character_desc
		}
	}
}

#Harpy
race_harpy = {
	index = 323
	
	flag = racial_trait
	
	fertility = 0.25	#Since half of pregnancies will end early due to being boys - #used to be 1 but removed this as we dont need it anymore?

	same_opinion = 2
	life_expectancy = -20	#80 - 30 = 60
	
	
	inherit_chance = 100
	both_parent_has_trait_inherit_chance = 100
	physical = yes
	
	birth = 0
	random_creation = 0
	
	icon = {
		first_valid = {
			triggered_desc = {
				trigger = { NOT = { exists = this } }
				desc = whole_of_body.dds
			}
			desc = whole_of_body.dds
		}
	}	
	desc = {
		first_valid = {
			triggered_desc = {
				trigger = {
					NOT = { exists = this }
				}
				desc = trait_race_harpy_desc
			}
			desc = trait_race_harpy_character_desc
		}
	}
}

########## Magic System Traits ##########

magical_affinity_1 = {
	index = 324

	attraction_opinion = 5
	monthly_magic_lifestyle_xp_gain_mult = 0.1
	fertility = -0.05

	birth = 0.1
	random_creation = 0.1

	group = magical_affinity
	level = 1

	genetic = yes
	good = yes
	physical = yes

	# icon = {
	# 	desc = x.dds
	# }

	desc = {
		first_valid = {
			triggered_desc = {
				trigger = {
					NOT = { exists = this }
				}
				desc = trait_magical_affinity_1_desc
			}
			desc = trait_magical_affinity_1_character_desc
		}
	}
}

magical_affinity_2 = {
	index = 325

	attraction_opinion = 15
	monthly_magic_lifestyle_xp_gain_mult = 0.2
	fertility = -0.1

	birth = 0.05
	random_creation = 0.05

	group = magical_affinity
	level = 2

	genetic = yes
	good = yes
	physical = yes

	# icon = {
	# 	desc = x.dds
	# }

	desc = {
		first_valid = {
			triggered_desc = {
				trigger = {
					NOT = { exists = this }
				}
				desc = trait_magical_affinity_2_desc
			}
			desc = trait_magical_affinity_2_character_desc
		}
	}
}

magical_affinity_3 = {
	index = 326

	attraction_opinion = 25
	monthly_magic_lifestyle_xp_gain_mult = 0.3 
	fertility = -0.15	#being magical has some complications

	birth = 0.01
	random_creation = 0.01

	group = magical_affinity
	level = 3

	genetic = yes
	good = yes
	physical = yes

	# icon = {
	# 	desc = x.dds
	# }

	desc = {
		first_valid = {
			triggered_desc = {
				trigger = {
					NOT = { exists = this }
				}
				desc = trait_magical_affinity_3_desc
			}
			desc = trait_magical_affinity_3_character_desc
		}
	}
}

forbidden_magic_practitioner = {
	index = 327

	dread_baseline_add = 20
	general_opinion = -10				#Feared/Distrusted even when culturally/religiously accepted - Subject to Change
	
	desc = {
		first_valid = {
			triggered_desc = {
				trigger = {
					NOT = { exists = this }
				}
				desc = trait_forbidden_magic_practitioner_desc
			}
			desc = trait_forbidden_magic_practitioner_character_desc
		}
	}

	ai_compassion = very_high_negative_ai_value
	ai_boldness = low_positive_ai_value
	ai_rationality = low_positive_ai_value
	
	triggered_opinion = {
		parameter = witchcraft_illegal
		opinion_modifier = forbidden_magic_crime
		ignore_opinion_value_if_same_trait = yes
	}
	triggered_opinion = {
		parameter = witchcraft_shunned
		opinion_modifier = forbidden_magic_intolerant
		ignore_opinion_value_if_same_trait = yes
	}
}

#### RELIGION ####
# Jaher Himself
sun_reborn = {
	index = 328
	category = fame
	opposites = {
		sun_reborn_descendant
	}
	diplomacy = 1
	learning = 2
	prowess = 2

	same_faith_opinion = 5
	
	shown_in_ruler_designer = no

	ai_zeal = 100
}

# Jaher's Heirs of the Body
sun_reborn_descendant = {
	index = 329
	category = fame
	opposites = {
		sun_reborn
	}
	learning = 1

	same_faith_opinion = 5
	
	shown_in_ruler_designer = no
	
	desc = {
		first_valid = {
			triggered_desc = {
				trigger = {
					NOT = { exists = this }
				}
				desc = trait_sun_reborn_descendant_desc
			}
			desc = trait_sun_reborn_descendant_character_desc
		}
	}
}

race_elf_dead = {
	index = 330
	
	fertility = -0.5	#was 0.75
	monthly_lifestyle_xp_gain_mult = -0.75
	years_of_fertility = 220	#so maybe like 250 it falls off	#45+ will give x0.1 multiplier so its the cutoff. 40 is 0.33, 35 is 0.5
	life_expectancy = 350
	no_prowess_loss_from_age = yes
	negate_health_penalty_add = 1

	immortal = yes
	
	martial = 1
	intrigue = 1
	stewardship = 1
	learning = 1
	diplomacy = 1

	#health = 0.75
	
	attraction_opinion = 20
	
	same_opinion = 5
	
	inherit_chance = 100
	both_parent_has_trait_inherit_chance = 100
	physical = yes
	
	birth = 0
	random_creation = 0
	
	name = trait_race_elf
	icon = {
		first_valid = {
			triggered_desc = {
				trigger = { NOT = { exists = this } }
				desc = consecrated_blood.dds
			}
			desc = consecrated_blood.dds
		}
	}	
	desc = {
		first_valid = {
			triggered_desc = {
				trigger = {
					NOT = { exists = this }
				}
				desc = trait_race_elf_desc
			}
			desc = trait_race_elf_character_desc
		}
	}
}

########## Racial Attitude Traits ##########
elven_purist = {
	index = 400
	flag = racial_purist
	random_creation = 0

	flag = is_racial_purist

	opposites = {
		race_human
		race_halfling
		race_dwarf
		race_gnome
		race_half_elf
	}

	potential = {
		character_can_get_purist_trait_for_race = {
			RACE = elf
		}
	}

	opposite_opinion = -15
	same_opinion = 10

	compatibility = {
		elven_purist = @pos_compat_high
		human_purist = @neg_compat_high
		gnomish_purist = @neg_compat_high
		dwarven_purist = @neg_compat_high
		half_elf_purist = @neg_compat_high
		halfling_purist = @neg_compat_high

		race_elf = @pos_compat_medium
		race_human = @neg_compat_medium
		race_gnome = @neg_compat_medium
		race_dwarf = @neg_compat_medium
		race_half_elf = @neg_compat_medium
		race_halfling = @neg_compat_medium
	}
	# icon = {
	# 	first_valid = {
	# 		triggered_desc = {
	# 			trigger = { NOT = { exists = this } }
	# 			desc = X.dds
	# 		}
	# 		desc = X.dds
	# 	}
	# }
	desc = {
		first_valid = {
			triggered_desc = {
				trigger = {
					NOT = { exists = this }
				}
				desc = trait_elven_purist_desc
			}
			desc = trait_elven_purist_character_desc
		}
	}
}

human_purist = {
	index = 401
	flag = racial_purist
	random_creation = 0

	flag = is_racial_purist

	opposites = {
		race_elf
		race_halfling
		race_dwarf
		race_gnome
		race_half_elf
	}
	
	potential = {
		character_can_get_purist_trait_for_race = {
			RACE = human
		}
	}

	opposite_opinion = -15
	same_opinion = 10

	compatibility = {
		elven_purist = @neg_compat_high
		human_purist = @pos_compat_high
		gnomish_purist = @neg_compat_high
		dwarven_purist = @neg_compat_high
		half_elf_purist = @neg_compat_high
		halfling_purist = @neg_compat_high

		race_elf = @neg_compat_medium
		race_human = @pos_compat_medium
		race_gnome = @neg_compat_medium
		race_dwarf = @neg_compat_medium
		race_half_elf = @neg_compat_medium
		race_halfling = @neg_compat_medium
	}
	# icon = {
	# 	first_valid = {
	# 		triggered_desc = {
	# 			trigger = { NOT = { exists = this } }
	# 			desc = X.dds
	# 		}
	# 		desc = X.dds
	# 	}
	# }	
	desc = {
		first_valid = {
			triggered_desc = {
				trigger = {
					NOT = { exists = this }
				}
				desc = trait_human_purist_desc
			}
			desc = trait_human_purist_character_desc
		}
	}
}

gnomish_purist = {
	index = 402
	flag = racial_purist
	random_creation = 0

	flag = is_racial_purist

	opposites = {
		race_elf
		race_halfling
		race_dwarf
		race_human
		race_half_elf
	}
	
	potential = {
		character_can_get_purist_trait_for_race = {
			RACE = gnome
		}
	}

	opposite_opinion = -15
	same_opinion = 10

	compatibility = {
		elven_purist = @neg_compat_high
		human_purist = @neg_compat_high
		gnomish_purist = @pos_compat_high
		dwarven_purist = @neg_compat_high
		half_elf_purist = @neg_compat_high
		halfling_purist = @neg_compat_high

		race_elf = @neg_compat_medium
		race_human = @neg_compat_medium
		race_gnome = @pos_compat_medium
		race_dwarf = @neg_compat_medium
		race_half_elf = @neg_compat_medium
		race_halfling = @neg_compat_medium
	}
	# icon = {
	# 	first_valid = {
	# 		triggered_desc = {
	# 			trigger = { NOT = { exists = this } }
	# 			desc = X.dds
	# 		}
	# 		desc = X.dds
	# 	}
	# }	
	desc = {
		first_valid = {
			triggered_desc = {
				trigger = {
					NOT = { exists = this }
				}
				desc = trait_gnomish_purist_desc
			}
			desc = trait_gnomish_purist_character_desc
		}
	}
}

dwarven_purist = {
	index = 403
	flag = racial_purist
	random_creation = 0

	flag = is_racial_purist

	opposites = {
		race_elf
		race_halfling
		race_human
		race_gnome
		race_half_elf
	}
	
	potential = {
		character_can_get_purist_trait_for_race = {
			RACE = dwarf
		}
	}

	opposite_opinion = -15
	same_opinion = 10

	compatibility = {
		elven_purist = @neg_compat_high
		human_purist = @neg_compat_high
		gnomish_purist = @neg_compat_high
		dwarven_purist = @pos_compat_high
		half_elf_purist = @neg_compat_high
		halfling_purist = @neg_compat_high

		race_elf = @neg_compat_medium
		race_human = @neg_compat_medium
		race_gnome = @neg_compat_medium
		race_dwarf = @pos_compat_medium
		race_half_elf = @neg_compat_medium
		race_halfling = @neg_compat_medium
	}
	# icon = {
	# 	first_valid = {
	# 		triggered_desc = {
	# 			trigger = { NOT = { exists = this } }
	# 			desc = X.dds
	# 		}
	# 		desc = X.dds
	# 	}
	# }	
	desc = {
		first_valid = {
			triggered_desc = {
				trigger = {
					NOT = { exists = this }
				}
				desc = trait_dwarven_purist_desc
			}
			desc = trait_dwarven_purist_character_desc
		}
	}
}

half_elf_purist = {
	index = 405
	flag = racial_purist
	random_creation = 0

	flag = is_racial_purist

	opposites = {
		race_elf
		race_halfling
		race_dwarf
		race_gnome
		race_human
	}
	
	potential = {
		character_can_get_purist_trait_for_race = {
			RACE = half_elf
		}
	}

	opposite_opinion = -15
	same_opinion = 10

	compatibility = {
		elven_purist = @neg_compat_high
		human_purist = @neg_compat_high
		gnomish_purist = @neg_compat_high
		dwarven_purist = @neg_compat_high
		half_elf_purist = @pos_compat_high
		halfling_purist = @neg_compat_high

		race_elf = @neg_compat_medium
		race_human = @neg_compat_medium
		race_gnome = @neg_compat_medium
		race_dwarf = @neg_compat_medium
		race_half_elf = @pos_compat_medium
		race_halfling = @neg_compat_medium
	}
	# icon = {
	# 	first_valid = {
	# 		triggered_desc = {
	# 			trigger = { NOT = { exists = this } }
	# 			desc = X.dds
	# 		}
	# 		desc = X.dds
	# 	}
	# }	
	desc = {
		first_valid = {
			triggered_desc = {
				trigger = {
					NOT = { exists = this }
				}
				desc = trait_half_elf_purist_desc
			}
			desc = trait_half_elf_purist_character_desc
		}
	}
}

halfling_purist = {
	index = 406
	flag = racial_purist
	random_creation = 0

	flag = is_racial_purist

	opposites = {
		race_elf
		race_dwarf
		race_gnome
		race_half_elf
		race_human
	}
	
	potential = {
		character_can_get_purist_trait_for_race = {
			RACE = halfling
		}
	}

	opposite_opinion = -15
	same_opinion = 10

	compatibility = {
		elven_purist = @neg_compat_high
		human_purist = @neg_compat_high
		gnomish_purist = @neg_compat_high
		dwarven_purist = @neg_compat_high
		half_elf_purist = @neg_compat_high
		halfling_purist = @pos_compat_high

		race_elf = @neg_compat_medium
		race_human = @neg_compat_medium
		race_gnome = @neg_compat_medium
		race_dwarf = @neg_compat_medium
		race_half_elf = @neg_compat_medium
		race_halfling = @pos_compat_medium
	}
	# icon = {
	# 	first_valid = {
	# 		triggered_desc = {
	# 			trigger = { NOT = { exists = this } }
	# 			desc = X.dds
	# 		}
	# 		desc = X.dds
	# 	}
	# }	
	desc = {
		first_valid = {
			triggered_desc = {
				trigger = {
					NOT = { exists = this }
				}
				desc = trait_halfling_purist_desc
			}
			desc = trait_halfling_purist_character_desc
		}
	}
}

bladeshunned = {
	index = 407
	random_creation = 0
	
	monthly_prestige = -1
	general_opinion = -5
	
	triggered_opinion  = {
		opinion_modifier = bladeshunned_blademarches_dejure
		
		ignore_opinion_value_if_same_trait = yes
	}
	
	potential = {
		OR = {
			NOT = { has_character_modifier = wielded_calindal }
			has_trait = blind # If you get blinded you can become bladeshunned even if you wielded calindal?
		}
	}
	
	desc = bladeshunned_trait_desc
}
deep_terrain_expert = {
	
	category = commander

	cavern_advantage = 5
	dwarven_road_advantage = 5
	dwarven_hold_advantage = 5
	dwarven_hold_surface_advantage = 5
	
	ruler_designer_cost = 25

	trait_exclusive_if_realm_contains = {
		cavern
		dwarven_road
		dwarven_hold_surface
		dwarven_hold
	}

	desc = {
		first_valid = {
			triggered_desc = {
				trigger = {
					NOT = { exists = this }
				}
				desc = trait_deep_terrain_expert_desc
			}
			desc = trait_deep_terrain_expert_character_desc
		}
	}
}
#TODO - these should be updated later when gameplay is made for them
lycanthrope = {
	opposites = { vampire lich }
	diplomacy = -1
	martial = 3
	intrigue = -1
	prowess = 10
	
	dread_baseline_add = 25	
	general_opinion = -10
	
	culture_modifier = {
		parameter = forest_trait_bonuses
		forest_max_combat_roll = 2
		taiga_max_combat_roll = 2
	}
	
	culture_modifier = {
		parameter = jungle_trait_bonuses
		jungle_max_combat_roll = 2
	}
	
	culture_modifier = {
		parameter = mountain_trait_bonuses
		mountains_max_combat_roll = 2
		desert_mountains_max_combat_roll = 2
	}
	
	culture_modifier = {
		parameter = dry_trait_bonuses
		drylands_max_combat_roll = 2
		desert_max_combat_roll = 2
	}

	ai_war_chance = 0.25

	flag = can_duel_criminals_interaction
	
	shown_in_ruler_designer = no
	
	desc = {
		first_valid = {
			triggered_desc = {
				trigger = {
					NOT = { exists = this }
				}
				desc = trait_lycanthrope_desc
			}
			desc = trait_lycanthrope_character_desc
		}
	}

	ai_rationality = medium_negative_ai_value
	ai_energy = very_low_positive_ai_value
	ai_boldness = medium_positive_ai_value
	ai_compassion = low_negative_ai_value
	ai_vengefulness = low_positive_ai_value
}

vampire = {
	opposites = { incapable lich immortal lycanthrope }	
	martial = 5
	diplomacy = 5
	stewardship = 5
	learning = 5
	intrigue = 5
	prowess = 10
	dread_baseline_add = 50	
	general_opinion = -20	
	immortal = yes
	# Dummy flags — just here for loc really.
	flag = is_immortal
	flag = immortal_visuals
	flag = immortal_fertility
	flag = immortal_incapability
	long_reign_bonus_mult = -1000
	no_prowess_loss_from_age = yes
	
	shown_in_ruler_designer = no
	
	desc = {
		first_valid = {
			triggered_desc = {
				trigger = {
					NOT = { exists = this }
				}
				desc = trait_vampire_desc
			}
			desc = trait_vampire_character_desc
		}
	}

	ai_honor = very_high_negative_ai_value
	ai_compassion = dominant_negative_ai_value
}

lich = {
	opposites = { incapable vampire immortal lycanthrope }	
	martial = 5
	diplomacy = 5
	stewardship = 5
	learning = 5
	intrigue = 5
	prowess = 10
	dread_baseline_add = 50	
	general_opinion = -20	
	immortal = yes
	# Dummy flags — just here for loc really.
	flag = is_immortal
	flag = immortal_visuals
	flag = immortal_fertility
	flag = immortal_incapability
	long_reign_bonus_mult = -1000
	no_prowess_loss_from_age = yes
	
	shown_in_ruler_designer = no
	
	desc = {
		first_valid = {
			triggered_desc = {
				trigger = {
					NOT = { exists = this }
				}
				desc = trait_lich_desc
			}
			desc = trait_lich_character_desc
		}
	}

	ai_honor = very_high_negative_ai_value
	ai_compassion = dominant_negative_ai_value
}


planetouched_fire_1 = {
	prowess = 2
	advantage = 1
	life_expectancy = 5
	physical = yes
	icon = {
		first_valid = {
			triggered_desc = {
				trigger = { NOT = { exists = this } }
				desc = varangian.dds
			}
			desc = varangian.dds
		}
	}	
	desc = {
		first_valid = {
			triggered_desc = {
				trigger = {
					NOT = { exists = this }
				}
				desc = trait_planetouched_fire_1_desc
			}
			desc = trait_planetouched_fire_1_character_desc
		}
	}
}
planetouched_fire_2 = {
	prowess = 5
	advantage = 3
	glory_hound_opinion = 10
	stewardship = -1
	life_expectancy = 10
	physical = yes
	icon = {
		first_valid = {
			triggered_desc = {
				trigger = { NOT = { exists = this } }
				desc = varangian.dds
			}
			desc = varangian.dds
		}
	}	
	desc = {
		first_valid = {
			triggered_desc = {
				trigger = {
					NOT = { exists = this }
				}
				desc = trait_planetouched_fire_2_desc
			}
			desc = trait_planetouched_fire_2_character_desc
		}
	}
}
planetouched_fire_3 = {
	prowess = 8
	advantage = 5
	glory_hound_opinion = 20
	stewardship = -2
	life_expectancy = 15
	physical = yes
	icon = {
		first_valid = {
			triggered_desc = {
				trigger = { NOT = { exists = this } }
				desc = varangian.dds
			}
			desc = varangian.dds
		}
	}	
	desc = {
		first_valid = {
			triggered_desc = {
				trigger = {
					NOT = { exists = this }
				}
				desc = trait_planetouched_fire_3_desc
			}
			desc = trait_planetouched_fire_3_character_desc
		}
	}
}
planetouched_water_1 = {
	learning = 1
	life_expectancy = 5
	physical = yes
	icon = {
		first_valid = {
			triggered_desc = {
				trigger = { NOT = { exists = this } }
				desc = varangian.dds
			}
			desc = varangian.dds
		}
	}	
	desc = {
		first_valid = {
			triggered_desc = {
				trigger = {
					NOT = { exists = this }
				}
				desc = trait_planetouched_water_1_desc
			}
			desc = trait_planetouched_water_1_character_desc
		}
	}
}
planetouched_water_2 = {
	learning = 2
	naval_movement_speed_mult = 0.1
	diplomacy = -1
	life_expectancy = 10
	physical = yes
	icon = {
		first_valid = {
			triggered_desc = {
				trigger = { NOT = { exists = this } }
				desc = varangian.dds
			}
			desc = varangian.dds
		}
	}	
	desc = {
		first_valid = {
			triggered_desc = {
				trigger = {
					NOT = { exists = this }
				}
				desc = trait_planetouched_water_2_desc
			}
			desc = trait_planetouched_water_2_character_desc
		}
	}
}
planetouched_water_3 = {
	learning = 4
	naval_movement_speed_mult = 0.2
	no_water_crossing_penalty = yes
	diplomacy = -2
	life_expectancy = 15
	physical = yes
	icon = {
		first_valid = {
			triggered_desc = {
				trigger = { NOT = { exists = this } }
				desc = varangian.dds
			}
			desc = varangian.dds
		}
	}	
	desc = {
		first_valid = {
			triggered_desc = {
				trigger = {
					NOT = { exists = this }
				}
				desc = trait_planetouched_water_3_desc
			}
			desc = trait_planetouched_water_3_character_desc
		}
	}
}
planetouched_earth_1 = {
	stewardship = 1
	life_expectancy = 5
	physical = yes
	icon = {
		first_valid = {
			triggered_desc = {
				trigger = { NOT = { exists = this } }
				desc = varangian.dds
			}
			desc = varangian.dds
		}
	}	
	desc = {
		first_valid = {
			triggered_desc = {
				trigger = {
					NOT = { exists = this }
				}
				desc = trait_planetouched_earth_1_desc
			}
			desc = trait_planetouched_earth_1_character_desc
		}
	}
}
planetouched_earth_2 = {
	stewardship = 2
	siege_phase_time = -0.1
	intrigue = -1
	life_expectancy = 10
	physical = yes
	icon = {
		first_valid = {
			triggered_desc = {
				trigger = { NOT = { exists = this } }
				desc = varangian.dds
			}
			desc = varangian.dds
		}
	}	
	desc = {
		first_valid = {
			triggered_desc = {
				trigger = {
					NOT = { exists = this }
				}
				desc = trait_planetouched_earth_2_desc
			}
			desc = trait_planetouched_earth_2_character_desc
		}
	}
}
planetouched_earth_3 = {
	stewardship = 4
	siege_phase_time = -0.2
	intrigue = -2
	life_expectancy = 15
	physical = yes
	icon = {
		first_valid = {
			triggered_desc = {
				trigger = { NOT = { exists = this } }
				desc = varangian.dds
			}
			desc = varangian.dds
		}
	}	
	desc = {
		first_valid = {
			triggered_desc = {
				trigger = {
					NOT = { exists = this }
				}
				desc = trait_planetouched_earth_3_desc
			}
			desc = trait_planetouched_earth_3_character_desc
		}
	}
}
planetouched_wind_1 = {
	diplomacy = 1
	stress_gain_mult = -0.05
	life_expectancy = 5
	physical = yes
	icon = {
		first_valid = {
			triggered_desc = {
				trigger = { NOT = { exists = this } }
				desc = varangian.dds
			}
			desc = varangian.dds
		}
	}	
	desc = {
		first_valid = {
			triggered_desc = {
				trigger = {
					NOT = { exists = this }
				}
				desc = trait_planetouched_wind_1_desc
			}
			desc = trait_planetouched_wind_1_character_desc
		}
	}
}
planetouched_wind_2 = {
	diplomacy = 2
	movement_speed = 0.1
	different_culture_opinion = 5
	stress_gain_mult = -0.1
	stewardship = -1
	life_expectancy = 10
	physical = yes
	icon = {
		first_valid = {
			triggered_desc = {
				trigger = { NOT = { exists = this } }
				desc = varangian.dds
			}
			desc = varangian.dds
		}
	}	
	desc = {
		first_valid = {
			triggered_desc = {
				trigger = {
					NOT = { exists = this }
				}
				desc = trait_planetouched_wind_2_desc
			}
			desc = trait_planetouched_wind_2_character_desc
		}
	}
}
planetouched_wind_3 = {
	diplomacy = 4
	movement_speed = 0.2
	different_culture_opinion = 10
	stress_gain_mult = -0.2
	stewardship = -2
	life_expectancy = 15
	physical = yes
	icon = {
		first_valid = {
			triggered_desc = {
				trigger = { NOT = { exists = this } }
				desc = varangian.dds
			}
			desc = varangian.dds
		}
	}	
	desc = {
		first_valid = {
			triggered_desc = {
				trigger = {
					NOT = { exists = this }
				}
				desc = trait_planetouched_wind_3_desc
			}
			desc = trait_planetouched_wind_3_character_desc
		}
	}
}
planetouched_life_1 = {
	fertility = 0.1
	attraction_opinion = 10
	life_expectancy = 10
	physical = yes
	icon = {
		first_valid = {
			triggered_desc = {
				trigger = { NOT = { exists = this } }
				desc = varangian.dds
			}
			desc = varangian.dds
		}
	}	
	desc = {
		first_valid = {
			triggered_desc = {
				trigger = {
					NOT = { exists = this }
				}
				desc = trait_planetouched_life_1_desc
			}
			desc = trait_planetouched_life_1_character_desc
		}
	}
}
planetouched_life_2 = {
	fertility = 0.2
	years_of_fertility = 5
	general_opinion = 5
	attraction_opinion = 10
	hard_casualty_modifier = -0.1
	enemy_hard_casualty_modifier = -0.1
	life_expectancy = 15
	physical = yes
	icon = {
		first_valid = {
			triggered_desc = {
				trigger = { NOT = { exists = this } }
				desc = varangian.dds
			}
			desc = varangian.dds
		}
	}	
	desc = {
		first_valid = {
			triggered_desc = {
				trigger = {
					NOT = { exists = this }
				}
				desc = trait_planetouched_life_2_desc
			}
			desc = trait_planetouched_life_2_character_desc
		}
	}
}
planetouched_life_3 = {
	fertility = 0.3
	years_of_fertility = 10
	general_opinion = 10
	attraction_opinion = 10
	hard_casualty_modifier = -0.2
	enemy_hard_casualty_modifier = -0.2
	life_expectancy = 20
	physical = yes
	icon = {
		first_valid = {
			triggered_desc = {
				trigger = { NOT = { exists = this } }
				desc = varangian.dds
			}
			desc = varangian.dds
		}
	}	
	desc = {
		first_valid = {
			triggered_desc = {
				trigger = {
					NOT = { exists = this }
				}
				desc = trait_planetouched_life_3_desc
			}
			desc = trait_planetouched_life_3_character_desc
		}
	}
}
planetouched_shadow_1 = {
	intrigue = 5
	dread_baseline_add = 5
	life_expectancy = 5
	physical = yes
	icon = {
		first_valid = {
			triggered_desc = {
				trigger = { NOT = { exists = this } }
				desc = varangian.dds
			}
			desc = varangian.dds
		}
	}	
	desc = {
		first_valid = {
			triggered_desc = {
				trigger = {
					NOT = { exists = this }
				}
				desc = trait_planetouched_shadow_1_desc
			}
			desc = trait_planetouched_shadow_1_character_desc
		}
	}
}
planetouched_shadow_2 = {
	intrigue = 2
	dread_baseline_add = 10
	general_opinion = -10
	life_expectancy = 10
	physical = yes
	icon = {
		first_valid = {
			triggered_desc = {
				trigger = { NOT = { exists = this } }
				desc = varangian.dds
			}
			desc = varangian.dds
		}
	}	
	desc = {
		first_valid = {
			triggered_desc = {
				trigger = {
					NOT = { exists = this }
				}
				desc = trait_planetouched_shadow_2_desc
			}
			desc = trait_planetouched_shadow_2_character_desc
		}
	}
}
planetouched_shadow_3 = {
	intrigue = 4
	dread_baseline_add = 20
	general_opinion = -20
	life_expectancy = 15
	physical = yes
	icon = {
		first_valid = {
			triggered_desc = {
				trigger = { NOT = { exists = this } }
				desc = varangian.dds
			}
			desc = varangian.dds
		}
	}	
	desc = {
		first_valid = {
			triggered_desc = {
				trigger = {
					NOT = { exists = this }
				}
				desc = trait_planetouched_shadow_3_desc
			}
			desc = trait_planetouched_shadow_3_character_desc
		}
	}
}

lifestyle_blademaster_2_history = {
	category = lifestyle
	shown_in_ruler_designer = no
	# Modifiers
	negate_health_penalty_add = 0.5
	prowess = 6
	culture_modifier = {
		parameter = trait_county_opinion_modifiers
		county_opinion_add = 5
	}
	culture_modifier = {
		parameter = blademaster_trait_bonuses
		attraction_opinion = 10
		monthly_prestige = 0.5
	}
	culture_modifier = {
		parameter = blademaster_traits_give_learning
		learning = 4
	}
	icon = {
		first_valid = {
			triggered_desc = {
				trigger = {
					exists = this
				}
				desc = blademaster_2.dds
			}
			desc = historical_character.dds
		}
	}
	name = {
		first_valid = {
			triggered_desc = {
				trigger = {
					exists = this
				}
				desc = trait_blademaster_2
			}
			desc = trait_history
		}
	}
	desc = {
		first_valid = {
			triggered_desc = {
				trigger = {
					exists = this
				}
				desc = trait_blademaster_3_character_desc
			}
			desc = trait_blademaster_2_desc
		}
	}
}

lifestyle_blademaster_3_history = {
	category = lifestyle
	shown_in_ruler_designer = no
	category = lifestyle
	shown_in_ruler_designer = no
	# Modifiers
	negate_health_penalty_add = 1.0
	prowess = 12
	culture_modifier = {
		parameter = trait_county_opinion_modifiers
		county_opinion_add = 10
	}
	culture_modifier = {
		parameter = blademaster_trait_bonuses
		attraction_opinion = 15
		monthly_prestige = 1.0
	}
	culture_modifier = {
		parameter = blademaster_traits_give_learning
		learning = 6
	}
	icon = {
		first_valid = {
			triggered_desc = {
				trigger = {
					exists = this
				}
				desc = blademaster_3.dds
			}
			desc = historical_character.dds
		}
	}
	name = {
		first_valid = {
			triggered_desc = {
				trigger = {
					exists = this
				}
				desc = trait_blademaster_3
			}
			desc = trait_history
		}
	}
	desc = {
		first_valid = {
			triggered_desc = {
				trigger = {
					exists = this
				}
				desc = trait_blademaster_3_character_desc
			}
			desc = trait_blademaster_3_desc
		}
	}
}

lifestyle_mystic_2_history = {
	category = lifestyle
	shown_in_ruler_designer = no
	# Modifiers
	learning = 2
	culture_modifier = {
		parameter = prowess_from_religious_traits
		prowess = 2
	}
	culture_modifier = {
		parameter = build_bonuses_on_religious_traits
		church_holding_build_gold_cost = -0.1
		church_holding_holding_build_gold_cost = -0.01
	}
	culture_modifier = {
		parameter = mystic_trait_gives_bonuses
		monthly_income_mult = 0.04
	}
	icon = {
		first_valid = {
			triggered_desc = {
				trigger = {
					exists = this
				}
				desc = mystic_2.dds
			}
			desc = historical_character.dds
		}
	}
	name = {
		first_valid = {
			triggered_desc = {
				trigger = {
					exists = this
				}
				desc = trait_mystic_3
			}
			desc = trait_history
		}
	}
	desc = {
		first_valid = {
			triggered_desc = {
				trigger = {
					exists = this
				}
				desc = trait_mystic_2_character_desc
			}
			desc = trait_mystic_2_desc
		}
	}
}

lifestyle_mystic_3_history = {
	category = lifestyle
	shown_in_ruler_designer = no
	# Modifiers
	learning = 5
	culture_modifier = {
		parameter = prowess_from_religious_traits
		prowess = 3
	}
	culture_modifier = {
		parameter = build_bonuses_on_religious_traits
		church_holding_build_gold_cost = -0.15
		church_holding_holding_build_gold_cost = -0.015
	}
	culture_modifier = {
		parameter = mystic_trait_gives_bonuses
		monthly_income_mult = 0.08
	}
	icon = {
		first_valid = {
			triggered_desc = {
				trigger = {
					exists = this
				}
				desc = mystic_3.dds
			}
			desc = historical_character.dds
		}
	}
	name = {
		first_valid = {
			triggered_desc = {
				trigger = {
					exists = this
				}
				desc = trait_mystic_3
			}
			desc = trait_history
		}
	}
	desc = {
		first_valid = {
			triggered_desc = {
				trigger = {
					exists = this
				}
				desc = trait_mystic_3_character_desc
			}
			desc = trait_mystic_3_desc
		}
	}
}

lifestyle_physician_2_history = {
	category = lifestyle
	shown_in_ruler_designer = no
	# Modifiers
	learning = 2
	negate_health_penalty_add = 0.5
	icon = {
		first_valid = {
			triggered_desc = {
				trigger = {
					exists = this
				}
				desc = physician_2.dds
			}
			desc = historical_character.dds
		}
	}
	name = {
		first_valid = {
			triggered_desc = {
				trigger = {
					exists = this
				}
				desc = trait_physician_2
			}
			desc = trait_history
		}
	}
	desc = {
		first_valid = {
			triggered_desc = {
				trigger = {
					exists = this
				}
				desc = trait_physician_2_character_desc
			}
			desc = trait_physician_2_desc
		}
	}
}

lifestyle_physician_3_history = {
	category = lifestyle
	shown_in_ruler_designer = no
	# Modifiers
	learning = 4
	negate_health_penalty_add = 1.0
	icon = {
		first_valid = {
			triggered_desc = {
				trigger = {
					exists = this
				}
				desc = physician_3.dds
			}
			desc = historical_character.dds
		}
	}
	name = {
		first_valid = {
			triggered_desc = {
				trigger = {
					exists = this
				}
				desc = trait_physician_3
			}
			desc = trait_history
		}
	}
	desc = {
		first_valid = {
			triggered_desc = {
				trigger = {
					exists = this
				}
				desc = trait_physician_3_character_desc
			}
			desc = trait_physician_3_desc
		}
	}
}

lifestyle_reveler_2_history = {
	category = lifestyle
	shown_in_ruler_designer = no
	# Modifiers
	courtly_opinion = 10
	intrigue = 2
	diplomacy = 1
	culture_modifier = {
		parameter = reveler_traits_more_valued
		monthly_prestige = 0.75
	}
	icon = {
		first_valid = {
			triggered_desc = {
				trigger = {
					exists = this
				}
				desc = reveler_2.dds
			}
			desc = historical_character.dds
		}
	}
	name = {
		first_valid = {
			triggered_desc = {
				trigger = {
					exists = this
				}
				desc = trait_reveler_3
			}
			desc = trait_history
		}
	}
	desc = {
		first_valid = {
			triggered_desc = {
				trigger = {
					exists = this
				}
				desc = trait_reveler_3_character_desc
			}
			desc = trait_reveler_2_desc
		}
	}
	
}

lifestyle_reveler_3_history = {
	category = lifestyle
	shown_in_ruler_designer = no
	# Modifiers
	courtly_opinion = 15
	intrigue = 3
	diplomacy = 3
	owned_hostile_scheme_success_chance_add = 10
	culture_modifier = {
		parameter = reveler_traits_more_valued
		monthly_prestige = 1.5
	}
	icon = {
		first_valid = {
			triggered_desc = {
				trigger = {
					exists = this
				}
				desc = reveler_3.dds
			}
			desc = historical_character.dds
		}
	}
	name = {
		first_valid = {
			triggered_desc = {
				trigger = {
					exists = this
				}
				desc = trait_reveler_3
			}
			desc = trait_history
		}
	}
	desc = {
		first_valid = {
			triggered_desc = {
				trigger = {
					exists = this
				}
				desc = trait_reveler_3_character_desc
			}
			desc = trait_reveler_3_desc
		}
	}
}

lifestyle_hunter_2_history = {
	category = lifestyle
	shown_in_ruler_designer = no
	glory_hound_opinion = 5
	stress_loss_mult = 0.1
	prowess = 2
	health = 0.05
	learning = 1
	culture_modifier = {
		parameter = hunting_traits_more_valued
		monthly_prestige = 0.5
		glory_hound_same_culture_opinion = 5
	}
	culture_modifier = {
		parameter = hunting_traits_more_pious
		monthly_piety = 0.3
		glory_hound_same_faith_opinion = 5
	}
	culture_modifier = {
		parameter = forest_trait_bonuses
		forest_advantage = 2
		taiga_advantage = 2
	}
	culture_modifier = {
		parameter = jungle_trait_bonuses
		jungle_advantage = 2
	}
	icon = {
		first_valid = {
			triggered_desc = {
				trigger = {
					exists = this
				}
				desc = hunter.dds
			}
			desc = historical_character.dds
		}
	}
	name = {
		first_valid = {
			triggered_desc = {
				trigger = {
					exists = this
				}
				desc = trait_hunter_2
			}
			desc = trait_history
		}
	}
	desc = {
		first_valid = {
			triggered_desc = {
				trigger = {
					exists = this
				}
				desc = trait_hunter_2_character_desc
			}
			desc = trait_hunter_2_desc
		}
	}
}

lifestyle_hunter_3_history = {
	category = lifestyle
	shown_in_ruler_designer = no
	glory_hound_opinion = 15
	stress_loss_mult = 0.2
	prowess = 4
	health = 0.2
	learning = 2
	culture_modifier = {
		parameter = hunting_traits_more_valued
		monthly_prestige = 1.0
		glory_hound_same_culture_opinion = 10
	}
	culture_modifier = {
		parameter = hunting_traits_more_pious
		monthly_piety = 0.7
		glory_hound_same_faith_opinion = 10
	}
	culture_modifier = {
		parameter = forest_trait_bonuses
		forest_advantage = 3
		taiga_advantage = 3
	}
	culture_modifier = {
		parameter = jungle_trait_bonuses
		jungle_advantage = 3
	}
	icon = {
		first_valid = {
			triggered_desc = {
				trigger = {
					exists = this
				}
				desc = hunter.dds
			}
			desc = historical_character.dds
		}
	}
	name = {
		first_valid = {
			triggered_desc = {
				trigger = {
					exists = this
				}
				desc = trait_hunter_3
			}
			desc = trait_history
		}
	}
	desc = {
		first_valid = {
			triggered_desc = {
				trigger = {
					exists = this
				}
				desc = trait_hunter_3_character_desc
			}
			desc = trait_hunter_3_desc
		}
	}
}

lifestyle_falconer_2_history = {
	category = lifestyle
	shown_in_ruler_designer = no
	same_opinion = 10
	stress_loss_mult = 0.05
	prowess = 1
	attraction_opinion = 5
	stewardship = 1
	learning = 1
	courtly_opinion = 5
	monthly_prestige = 0.25
	culture_modifier = {
		parameter = hunting_traits_more_valued
		monthly_prestige = 0.5
		courtly_same_culture_opinion = 5
		courtly_same_faith_opinion = 5
	}
	culture_modifier = {
		parameter = hunting_traits_more_pious
		monthly_piety = 0.3
	}
	culture_modifier = {
		parameter = forest_trait_bonuses
		forest_advantage = 1
		taiga_advantage = 1
	}
	culture_modifier = {
		parameter = jungle_trait_bonuses
		jungle_advantage = 1
	}
	icon = {
		first_valid = {
			triggered_desc = {
				trigger = {
					exists = this
				}
				desc = hunter.dds
			}
			desc = historical_character.dds
		}
	}
	name = {
		first_valid = {
			triggered_desc = {
				trigger = {
					exists = this
				}
				desc = trait_track_falconer
			}
			desc = trait_history
		}
	}
	desc = {
		first_valid = {
			triggered_desc = {
				trigger = {
					exists = this
				}
				desc = trait_track_falconer_desc
			}
			desc = trait_track_falconer_desc
		}
	}
}

lifestyle_falconer_3_history = {
	category = lifestyle
	shown_in_ruler_designer = no
	same_opinion = 10
	stress_loss_mult = 0.05
	prowess = 1
	attraction_opinion = 5
	stewardship = 2
	learning = 1
	courtly_opinion = 10
	monthly_prestige = 0.5
	culture_modifier = {
		parameter = hunting_traits_more_valued
		monthly_prestige = 0.5
		courtly_same_culture_opinion = 5
	}
	culture_modifier = {
		parameter = hunting_traits_more_pious
		monthly_piety = 0.3
		courtly_same_faith_opinion = 5
	}
	culture_modifier = {
		parameter = forest_trait_bonuses
		forest_advantage = 1
		taiga_advantage = 1
	}
	culture_modifier = {
		parameter = jungle_trait_bonuses
		jungle_advantage = 1
	}
	icon = {
		first_valid = {
			triggered_desc = {
				trigger = {
					exists = this
				}
				desc = hunter.dds
			}
			desc = historical_character.dds
		}
	}
	name = {
		first_valid = {
			triggered_desc = {
				trigger = {
					exists = this
				}
				desc = trait_track_falconer
			}
			desc = trait_history
		}
	}
	desc = {
		first_valid = {
			triggered_desc = {
				trigger = {
					exists = this
				}
				desc = trait_track_falconer_desc
			}
			desc = trait_track_falconer_desc
		}
	}
}